{
	"info": {
		"_postman_id": "c7703f73-0762-45aa-8557-7bb8cb3772c2",
		"name": "Lab_Exam_Sdm_Movie_Postmanfile",
		"schema": "https://schema.getpostman.com/json/collection/v2.1.0/collection.json"
	},
	"item": [
		{
			"name": "Display_All_Movies",
			"request": {
				"method": "GET",
				"header": [],
				"url": {
					"raw": "{{URL}}/movie",
					"host": [
						"{{URL}}"
					],
					"path": [
						"movie"
					]
				}
			},
			"response": []
		},
		{
			"name": "Add_New_Movie",
			"request": {
				"method": "POST",
				"header": [],
				"body": {
					"mode": "raw",
					"raw": "{\r\n    \"movie_id\": 5,\r\n    \"movie_title\" : \"Sairat\", \r\n    \"movie_release_date\" : \"25-12-2018\",\r\n    \"movie_time\" : \"9.00AM\",\r\n    \"director_name\" : \"Nagraj_manjule\"\r\n}",
					"options": {
						"raw": {
							"language": "json"
						}
					}
				},
				"url": {
					"raw": "{{URL}}/movie",
					"host": [
						"{{URL}}"
					],
					"path": [
						"movie"
					]
				}
			},
			"response": []
		},
		{
			"name": "Update_Movie_Details",
			"request": {
				"method": "PUT",
				"header": [],
				"body": {
					"mode": "raw",
					"raw": "{\r\n   \r\n    \"movie_release_date\" : \"01-01-2022\",\r\n    \"movie_time\" : \"11.00AM\"\r\n  \r\n}",
					"options": {
						"raw": {
							"language": "json"
						}
					}
				},
				"url": {
					"raw": "{{URL}}/movie/5",
					"host": [
						"{{URL}}"
					],
					"path": [
						"movie",
						"5"
					]
				}
			},
			"response": []
		},
		{
			"name": "Delete_A_Movie",
			"request": {
				"method": "DELETE",
				"header": [],
				"url": {
					"raw": "{{URL}}/movie/5",
					"host": [
						"{{URL}}"
					],
					"path": [
						"movie",
						"5"
					]
				}
			},
			"response": []
		}
	],
	"event": [
		{
			"listen": "prerequest",
			"script": {
				"type": "text/javascript",
				"exec": [
					""
				]
			}
		},
		{
			"listen": "test",
			"script": {
				"type": "text/javascript",
				"exec": [
					""
				]
			}
		}
	],
	"variable": [
		{
			"key": "URL",
			"value": "http://localhost:4000",
			"type": "string"
		}
	]
}